<?xml version="1.0" standalone="no"?>
<!DOCTYPE svg PUBLIC "-//W3C//DTD SVG 20010904//EN"
 "http://www.w3.org/TR/2001/REC-SVG-20010904/DTD/svg10.dtd">
<svg version="1.0" xmlns="http://www.w3.org/2000/svg"
 width="16.000000pt" height="16.000000pt" viewBox="0 0 16.000000 16.000000"
 preserveAspectRatio="xMidYMid meet">
<metadata>
Created by potrace 1.11, written by Peter Selinger 2001-2013
</metadata>
<g transform="translate(0.000000,16.000000) scale(0.003200,-0.003200)"
fill="#000000" stroke="none">
<path d="M2375 4993 c-662 -44 -1176 -273 -1630 -728 -230 -229 -362 -411
-490 -670 -148 -300 -217 -566 -246 -951 -24 -320 35 -721 151 -1029 211 -563
668 -1072 1212 -1350 600 -307 1369 -349 2017 -109 625 232 1196 794 1439
1416 257 658 222 1443 -93 2056 -215 422 -587 810 -1007 1051 -319 183 -648
279 -1064 310 -135 11 -181 11 -289 4z m-744 -1616 c114 -30 249 -84 249 -100
0 -11 -106 -302 -115 -317 -3 -4 -41 8 -84 26 -118 51 -204 66 -347 62 -105
-3 -128 -7 -169 -28 -78 -41 -107 -126 -69 -205 29 -62 89 -97 309 -179 348
-131 471 -223 537 -401 20 -52 23 -79 23 -210 -1 -175 -14 -223 -93 -328 -111
-145 -287 -214 -579 -224 -161 -6 -291 7 -432 43 -85 22 -241 85 -241 98 0 8
110 320 115 324 3 3 36 -9 74 -26 118 -53 211 -73 366 -79 201 -8 282 14 338
89 31 41 34 117 7 173 -36 73 -100 111 -360 207 -201 75 -283 120 -366 203
-105 104 -144 200 -144 351 0 278 187 480 498 539 120 23 360 14 483 -18z
m1228 -144 c93 -187 214 -452 328 -723 52 -124 98 -229 102 -233 5 -4 34 54
66 130 111 267 266 610 352 783 l88 175 191 3 192 2 6 -32 c30 -167 84 -798
116 -1353 11 -192 21 -378 24 -412 l4 -63 -203 0 -203 0 -6 83 c-3 45 -10 213
-16 372 -9 261 -37 735 -44 760 -1 5 -97 -213 -214 -485 l-211 -495 -148 0
-148 0 -210 493 c-207 487 -210 493 -217 448 -12 -88 -58 -980 -58 -1143 l0
-33 -205 0 c-113 0 -205 4 -205 9 0 88 65 1073 86 1301 16 178 51 491 59 528
5 22 6 22 205 22 l200 0 69 -137z"/>
</g>
</svg>
